Brexit single keyword initial numbers
…
3.4 Days in which largest number of HS tweets were sent

highest_hs <- brexit_data_processed %>% 
  arrange(desc(antimuslim_TRUE))

highest_hs

# A tibble: 278 x 5
   day                 day_ratio antimuslim_FALSE antimuslim_TRUE total_n
   <dttm>                  <dbl>            <dbl>           <dbl>   <dbl>
 1 2019-12-13 00:00:00    0.0250          1304230           33424 1337654
 2 2019-07-23 00:00:00    0.0596           436921           27687  464608
 3 2019-03-29 00:00:00    0.0257           916498           24196  940694
 4 2019-12-12 00:00:00    0.0339           627568           22025  649593
 5 2019-03-23 00:00:00    0.0279           767273           22014  789287
 6 2019-04-06 00:00:00    0.0388           413937           16709  430646
 7 2019-05-03 00:00:00    0.0303           525281           16427  541708
 8 2019-04-12 00:00:00    0.0325           485502           16296  501798
 9 2019-11-05 00:00:00    0.0386           391942           15731  407673
10 2019-05-24 00:00:00    0.0269           541257           14960  556217
# … with 268 more rows
…
