corona_identity_filter_sizes
…
nrow(retweets)

[1] 127160

Warning: The above code chunk cached its results, but it won’t be re-run if previous chunks it depends on are updated. If you need to use caching, it is highly recommended to also set knitr::opts_chunk$set(autodep = TRUE) at the top of the file (in a chunk that is not cached). Alternatively, you can customize the option dependson for each individual chunk that is cached. Using either autodep or dependson will remove this warning. See the knitr cache options for more details.

rt_counts <- retweets %>% # counting of RTs of original tweets
  count(retweet_status_id, name = 'RT_count') %>% 
  arrange(desc(RT_count))

rt_counts

# A tibble: 12,233 x 2
   retweet_status_id   RT_count
   <chr>                  <int>
 1 1248450422869602304     8994
 2 1248556133737996291     8268
 3 1248262397854396417     2605
 4 1247542368514887690     1995
 5 1248296585118642179     1939
 6 1248534148085506048     1904
 7 1248454747490619392     1860
 8 1248430523178864646     1518
 9 1248291142149398529     1398
10 1248551668070768641     1119
# … with 12,223 more rows
…
